%YAML 1.1
%TAG !u! tag:unity3d.com,2011:
--- !u!29 &1
OcclusionCullingSettings:
  m_ObjectHideFlags: 0
  serializedVersion: 2
  m_OcclusionBakeSettings:
    smallestOccluder: 5
    smallestHole: 0.25
    backfaceThreshold: 100
  m_SceneGUID: 00000000000000000000000000000000
  m_OcclusionCullingData: {fileID: 0}
--- !u!104 &2
RenderSettings:
  m_ObjectHideFlags: 0
  serializedVersion: 9
  m_Fog: 0
  m_FogColor: {r: 0.5, g: 0.5, b: 0.5, a: 1}
  m_FogMode: 3
  m_FogDensity: 0.01
  m_LinearFogStart: 0
  m_LinearFogEnd: 300
  m_AmbientSkyColor: {r: 0, g: 0, b: 0, a: 1}
  m_AmbientEquatorColor: {r: 0.114, g: 0.125, b: 0.133, a: 1}
  m_AmbientGroundColor: {r: 0.047, g: 0.043, b: 0.035, a: 1}
  m_AmbientIntensity: 1
  m_AmbientMode: 0
  m_SubtractiveShadowColor: {r: 0.42, g: 0.478, b: 0.627, a: 1}
  m_SkyboxMaterial: {fileID: 10304, guid: 0000000000000000f000000000000000, type: 0}
  m_HaloStrength: 0.5
  m_FlareStrength: 1
  m_FlareFadeSpeed: 3
  m_HaloTexture: {fileID: 0}
  m_SpotCookie: {fileID: 10001, guid: 0000000000000000e000000000000000, type: 0}
  m_DefaultReflectionMode: 0
  m_DefaultReflectionResolution: 128
  m_ReflectionBounces: 1
  m_ReflectionIntensity: 0.821
  m_CustomReflection: {fileID: 0}
  m_Sun: {fileID: 0}
  m_IndirectSpecularColor: {r: 0, g: 0, b: 0, a: 0.821}
  m_UseRadianceAmbientProbe: 0
--- !u!157 &3
LightmapSettings:
  m_ObjectHideFlags: 0
  serializedVersion: 12
  m_GIWorkflowMode: 0
  m_GISettings:
    serializedVersion: 2
    m_BounceScale: 1
    m_IndirectOutputScale: 1
    m_AlbedoBoost: 1
    m_EnvironmentLightingMode: 0
    m_EnableBakedLightmaps: 1
    m_EnableRealtimeLightmaps: 1
  m_LightmapEditorSettings:
    serializedVersion: 12
    m_Resolution: 2
    m_BakeResolution: 40
    m_AtlasSize: 1024
    m_AO: 0
    m_AOMaxDistance: 1
    m_CompAOExponent: 1
    m_CompAOExponentDirect: 0
    m_ExtractAmbientOcclusion: 0
    m_Padding: 2
    m_LightmapParameters: {fileID: 0}
    m_LightmapsBakeMode: 1
    m_TextureCompression: 1
    m_FinalGather: 0
    m_FinalGatherFiltering: 1
    m_FinalGatherRayCount: 256
    m_ReflectionCompression: 2
    m_MixedBakeMode: 2
    m_BakeBackend: 0
    m_PVRSampling: 1
    m_PVRDirectSampleCount: 32
    m_PVRSampleCount: 500
    m_PVRBounces: 2
    m_PVREnvironmentSampleCount: 500
    m_PVREnvironmentReferencePointCount: 2048
    m_PVRFilteringMode: 2
    m_PVRDenoiserTypeDirect: 0
    m_PVRDenoiserTypeIndirect: 0
    m_PVRDenoiserTypeAO: 0
    m_PVRFilterTypeDirect: 0
    m_PVRFilterTypeIndirect: 0
    m_PVRFilterTypeAO: 0
    m_PVREnvironmentMIS: 0
    m_PVRCulling: 1
    m_PVRFilteringGaussRadiusDirect: 1
    m_PVRFilteringGaussRadiusIndirect: 5
    m_PVRFilteringGaussRadiusAO: 2
    m_PVRFilteringAtrousPositionSigmaDirect: 0.5
    m_PVRFilteringAtrousPositionSigmaIndirect: 2
    m_PVRFilteringAtrousPositionSigmaAO: 1
    m_ExportTrainingData: 0
    m_TrainingDataDestination: TrainingData
    m_LightProbeSampleCountMultiplier: 4
  m_LightingDataAsset: {fileID: 0}
  m_LightingSettings: {fileID: 4890085278179872738, guid: 0f5fbcb222733490aa3214959c860c11, type: 2}
--- !u!196 &4
NavMeshSettings:
  serializedVersion: 2
  m_ObjectHideFlags: 0
  m_BuildSettings:
    serializedVersion: 2
    agentTypeID: 0
    agentRadius: 0.5
    agentHeight: 2
    agentSlope: 45
    agentClimb: 0.4
    ledgeDropHeight: 0
    maxJumpAcrossDistance: 0
    minRegionArea: 2
    manualCellSize: 0
    cellSize: 0.16666667
    manualTileSize: 0
    tileSize: 256
    accuratePlacement: 0
    maxJobWorkers: 0
    preserveTilesOutsideBounds: 0
    debug:
      m_Flags: 0
  m_NavMeshData: {fileID: 0}
--- !u!1001 &40531893
PrefabInstance:
  m_ObjectHideFlags: 0
  serializedVersion: 2
  m_Modification:
    m_TransformParent: {fileID: 0}
    m_Modifications:
    - target: {fileID: 409554, guid: a3435c28112218047bd819e0f2060a9d, type: 3}
      propertyPath: m_RootOrder
      value: 5
      objectReference: {fileID: 0}
    - target: {fileID: 409554, guid: a3435c28112218047bd819e0f2060a9d, type: 3}
      propertyPath: m_LocalPosition.x
      value: -2.9992378
      objectReference: {fileID: 0}
    - target: {fileID: 409554, guid: a3435c28112218047bd819e0f2060a9d, type: 3}
      propertyPath: m_LocalPosition.y
      value: 0.04699895
      objectReference: {fileID: 0}
    - target: {fileID: 409554, guid: a3435c28112218047bd819e0f2060a9d, type: 3}
      propertyPath: m_LocalPosition.z
      value: -2.3129292
      objectReference: {fileID: 0}
    - target: {fileID: 409554, guid: a3435c28112218047bd819e0f2060a9d, type: 3}
      propertyPath: m_LocalRotation.w
      value: 0.49905658
      objectReference: {fileID: 0}
    - target: {fileID: 409554, guid: a3435c28112218047bd819e0f2060a9d, type: 3}
      propertyPath: m_LocalRotation.x
      value: 0.49905604
      objectReference: {fileID: 0}
    - target: {fileID: 409554, guid: a3435c28112218047bd819e0f2060a9d, type: 3}
      propertyPath: m_LocalRotation.y
      value: 0.5009417
      objectReference: {fileID: 0}
    - target: {fileID: 409554, guid: a3435c28112218047bd819e0f2060a9d, type: 3}
      propertyPath: m_LocalRotation.z
      value: -0.5009422
      objectReference: {fileID: 0}
    - target: {fileID: 409554, guid: a3435c28112218047bd819e0f2060a9d, type: 3}
      propertyPath: m_LocalEulerAnglesHint.x
      value: 90.00001
      objectReference: {fileID: 0}
    - target: {fileID: 409554, guid: a3435c28112218047bd819e0f2060a9d, type: 3}
      propertyPath: m_LocalEulerAnglesHint.z
      value: -90.216
      objectReference: {fileID: 0}
    m_RemovedComponents: []
  m_SourcePrefab: {fileID: 100100000, guid: a3435c28112218047bd819e0f2060a9d, type: 3}
--- !u!1 &50399043
GameObject:
  m_ObjectHideFlags: 0
  m_CorrespondingSourceObject: {fileID: 0}
  m_PrefabInstance: {fileID: 0}
  m_PrefabAsset: {fileID: 0}
  serializedVersion: 6
  m_Component:
  - component: {fileID: 50399049}
  - component: {fileID: 50399048}
  - component: {fileID: 50399046}
  - component: {fileID: 50399045}
  m_Layer: 0
  m_Name: Main Camera
  m_TagString: MainCamera
  m_Icon: {fileID: 0}
  m_NavMeshLayer: 0
  m_StaticEditorFlags: 0
  m_IsActive: 1
--- !u!81 &50399045
AudioListener:
  m_ObjectHideFlags: 0
  m_CorrespondingSourceObject: {fileID: 0}
  m_PrefabInstance: {fileID: 0}
  m_PrefabAsset: {fileID: 0}
  m_GameObject: {fileID: 50399043}
  m_Enabled: 1
--- !u!124 &50399046
Behaviour:
  m_ObjectHideFlags: 0
  m_CorrespondingSourceObject: {fileID: 0}
  m_PrefabInstance: {fileID: 0}
  m_PrefabAsset: {fileID: 0}
  m_GameObject: {fileID: 50399043}
  m_Enabled: 1
--- !u!20 &50399048
Camera:
  m_ObjectHideFlags: 0
  m_CorrespondingSourceObject: {fileID: 0}
  m_PrefabInstance: {fileID: 0}
  m_PrefabAsset: {fileID: 0}
  m_GameObject: {fileID: 50399043}
  m_Enabled: 1
  serializedVersion: 2
  m_ClearFlags: 1
  m_BackGroundColor: {r: 0.19215687, g: 0.3019608, b: 0.4745098, a: 0}
  m_projectionMatrixMode: 1
  m_GateFitMode: 2
  m_FOVAxisMode: 0
  m_SensorSize: {x: 36, y: 24}
  m_LensShift: {x: 0, y: 0}
  m_FocalLength: 50
  m_NormalizedViewPortRect:
    serializedVersion: 2
    x: 0
    y: 0
    width: 1
    height: 1
  near clip plane: 0.3
  far clip plane: 1000
  field of view: 60
  orthographic: 0
  orthographic size: 5
  m_Depth: -1
  m_CullingMask:
    serializedVersion: 2
    m_Bits: 4294967295
  m_RenderingPath: -1
  m_TargetTexture: {fileID: 0}
  m_TargetDisplay: 0
  m_TargetEye: 3
  m_HDR: 1
  m_AllowMSAA: 1
  m_AllowDynamicResolution: 0
  m_ForceIntoRT: 0
  m_OcclusionCulling: 1
  m_StereoConvergence: 10
  m_StereoSeparation: 0.022
--- !u!4 &50399049
Transform:
  m_ObjectHideFlags: 0
  m_CorrespondingSourceObject: {fileID: 0}
  m_PrefabInstance: {fileID: 0}
  m_PrefabAsset: {fileID: 0}
  m_GameObject: {fileID: 50399043}
  m_LocalRotation: {x: 0.2566361, y: 0.50912774, z: -0.16223858, w: 0.80536056}
  m_LocalPosition: {x: -5.43, y: 3.91, z: -5.18}
  m_LocalScale: {x: 1, y: 1, z: 1}
  m_Children: []
  m_Father: {fileID: 0}
  m_RootOrder: 0
  m_LocalEulerAnglesHint: {x: 35.35, y: 64.6, z: 0}
--- !u!1001 &58047813
PrefabInstance:
  m_ObjectHideFlags: 0
  serializedVersion: 2
  m_Modification:
    m_TransformParent: {fileID: 0}
    m_Modifications:
    - target: {fileID: 402374, guid: 4013bf42a9ebcbe448e482634fe9b60b, type: 3}
      propertyPath: m_RootOrder
      value: 7
      objectReference: {fileID: 0}
    - target: {fileID: 402374, guid: 4013bf42a9ebcbe448e482634fe9b60b, type: 3}
      propertyPath: m_LocalPosition.x
      value: -1.78
      objectReference: {fileID: 0}
    - target: {fileID: 402374, guid: 4013bf42a9ebcbe448e482634fe9b60b, type: 3}
      propertyPath: m_LocalPosition.y
      value: 0.091
      objectReference: {fileID: 0}
    - target: {fileID: 402374, guid: 4013bf42a9ebcbe448e482634fe9b60b, type: 3}
      propertyPath: m_LocalPosition.z
      value: -4.29
      objectReference: {fileID: 0}
    - target: {fileID: 402374, guid: 4013bf42a9ebcbe448e482634fe9b60b, type: 3}
      propertyPath: m_LocalRotation.w
      value: 1
      objectReference: {fileID: 0}
    - target: {fileID: 402374, guid: 4013bf42a9ebcbe448e482634fe9b60b, type: 3}
      propertyPath: m_LocalRotation.x
      value: 0
      objectReference: {fileID: 0}
    - target: {fileID: 402374, guid: 4013bf42a9ebcbe448e482634fe9b60b, type: 3}
      propertyPath: m_LocalRotation.y
      value: 0
      objectReference: {fileID: 0}
    - target: {fileID: 402374, guid: 4013bf42a9ebcbe448e482634fe9b60b, type: 3}
      propertyPath: m_LocalRotation.z
      value: 0
      objectReference: {fileID: 0}
    m_RemovedComponents: []
  m_SourcePrefab: {fileID: 100100000, guid: 4013bf42a9ebcbe448e482634fe9b60b, type: 3}
--- !u!1001 &109409215
PrefabInstance:
  m_ObjectHideFlags: 0
  serializedVersion: 2
  m_Modification:
    m_TransformParent: {fileID: 0}
    m_Modifications:
    - target: {fileID: 416816, guid: 936422eab196d54458fcc769c0529a9b, type: 3}
      propertyPath: m_RootOrder
      value: 14
      objectReference: {fileID: 0}
    - target: {fileID: 416816, guid: 936422eab196d54458fcc769c0529a9b, type: 3}
      propertyPath: m_LocalScale.x
      value: 1
      objectReference: {fileID: 0}
    - target: {fileID: 416816, guid: 936422eab196d54458fcc769c0529a9b, type: 3}
      propertyPath: m_LocalScale.y
      value: 1
      objectReference: {fileID: 0}
    - target: {fileID: 416816, guid: 936422eab196d54458fcc769c0529a9b, type: 3}
      propertyPath: m_LocalScale.z
      value: 1
      objectReference: {fileID: 0}
    - target: {fileID: 416816, guid: 936422eab196d54458fcc769c0529a9b, type: 3}
      propertyPath: m_LocalPosition.x
      value: 0.7832527
      objectReference: {fileID: 0}
    - target: {fileID: 416816, guid: 936422eab196d54458fcc769c0529a9b, type: 3}
      propertyPath: m_LocalPosition.y
      value: 0.8496218
      objectReference: {fileID: 0}
    - target: {fileID: 416816, guid: 936422eab196d54458fcc769c0529a9b, type: 3}
      propertyPath: m_LocalPosition.z
      value: 1.9305358
      objectReference: {fileID: 0}
    - target: {fileID: 416816, guid: 936422eab196d54458fcc769c0529a9b, type: 3}
      propertyPath: m_LocalRotation.w
      value: 0.0000020191071
      objectReference: {fileID: 0}
    - target: {fileID: 416816, guid: 936422eab196d54458fcc769c0529a9b, type: 3}
      propertyPath: m_LocalRotation.x
      value: -0.0000020191071
      objectReference: {fileID: 0}
    - target: {fileID: 416816, guid: 936422eab196d54458fcc769c0529a9b, type: 3}
      propertyPath: m_LocalRotation.y
      value: -0.7071068
      objectReference: {fileID: 0}
    - target: {fileID: 416816, guid: 936422eab196d54458fcc769c0529a9b, type: 3}
      propertyPath: m_LocalRotation.z
      value: -0.7071068
      objectReference: {fileID: 0}
    - target: {fileID: 416816, guid: 936422eab196d54458fcc769c0529a9b, type: 3}
      propertyPath: m_LocalEulerAnglesHint.x
      value: -90.00001
      objectReference: {fileID: 0}
    - target: {fileID: 416816, guid: 936422eab196d54458fcc769c0529a9b, type: 3}
      propertyPath: m_LocalEulerAnglesHint.z
      value: -180.00002
      objectReference: {fileID: 0}
    m_RemovedComponents: []
  m_SourcePrefab: {fileID: 100100000, guid: 936422eab196d54458fcc769c0529a9b, type: 3}
--- !u!1 &182461617
GameObject:
  m_ObjectHideFlags: 0
  m_CorrespondingSourceObject: {fileID: 0}
  m_PrefabInstance: {fileID: 0}
  m_PrefabAsset: {fileID: 0}
  serializedVersion: 6
  m_Component:
  - component: {fileID: 182461619}
  - component: {fileID: 182461618}
  m_Layer: 0
  m_Name: Point light
  m_TagString: Untagged
  m_Icon: {fileID: 0}
  m_NavMeshLayer: 0
  m_StaticEditorFlags: 0
  m_IsActive: 1
--- !u!108 &182461618
Light:
  m_ObjectHideFlags: 0
  m_CorrespondingSourceObject: {fileID: 0}
  m_PrefabInstance: {fileID: 0}
  m_PrefabAsset: {fileID: 0}
  m_GameObject: {fileID: 182461617}
  m_Enabled: 1
  serializedVersion: 10
  m_Type: 2
  m_Shape: 0
  m_Color: {r: 0.9852941, g: 0.90485173, b: 0.73172575, a: 1}
  m_Intensity: 1
  m_Range: 21.17798
  m_SpotAngle: 30
  m_InnerSpotAngle: 21.80208
  m_CookieSize: 10
  m_Shadows:
    m_Type: 2
    m_Resolution: -1
    m_CustomResolution: -1
    m_Strength: 1
    m_Bias: 0.05
    m_NormalBias: 0.4
    m_NearPlane: 0.2
    m_CullingMatrixOverride:
      e00: 1
      e01: 0
      e02: 0
      e03: 0
      e10: 0
      e11: 1
      e12: 0
      e13: 0
      e20: 0
      e21: 0
      e22: 1
      e23: 0
      e30: 0
      e31: 0
      e32: 0
      e33: 1
    m_UseCullingMatrixOverride: 0
  m_Cookie: {fileID: 0}
  m_DrawHalo: 0
  m_Flare: {fileID: 0}
  m_RenderMode: 0
  m_CullingMask:
    serializedVersion: 2
    m_Bits: 4294967295
  m_RenderingLayerMask: 1
  m_Lightmapping: 4
  m_LightShadowCasterMode: 0
  m_AreaSize: {x: 1, y: 1}
  m_BounceIntensity: 1
  m_ColorTemperature: 6570
  m_UseColorTemperature: 0
  m_BoundingSphereOverride: {x: 0, y: 0, z: 0, w: 0}
  m_UseBoundingSphereOverride: 0
  m_UseViewFrustumForShadowCasterCull: 1
  m_ShadowRadius: 0
  m_ShadowAngle: 0
--- !u!4 &182461619
Transform:
  m_ObjectHideFlags: 0
  m_CorrespondingSourceObject: {fileID: 0}
  m_PrefabInstance: {fileID: 0}
  m_PrefabAsset: {fileID: 0}
  m_GameObject: {fileID: 182461617}
  m_LocalRotation: {x: 0, y: 0, z: 0, w: 1}
  m_LocalPosition: {x: -2.43, y: 1.5, z: -3.06}
  m_LocalScale: {x: 1, y: 1, z: 1}
  m_Children: []
  m_Father: {fileID: 0}
  m_RootOrder: 15
  m_LocalEulerAnglesHint: {x: 0, y: 0, z: 0}
--- !u!1001 &270055834
PrefabInstance:
  m_ObjectHideFlags: 0
  serializedVersion: 2
  m_Modification:
    m_TransformParent: {fileID: 0}
    m_Modifications:
    - target: {fileID: 487440, guid: 9fc563619a488e547b6dae04097a4879, type: 3}
      propertyPath: m_RootOrder
      value: 13
      objectReference: {fileID: 0}
    - target: {fileID: 487440, guid: 9fc563619a488e547b6dae04097a4879, type: 3}
      propertyPath: m_LocalScale.x
      value: 1
      objectReference: {fileID: 0}
    - target: {fileID: 487440, guid: 9fc563619a488e547b6dae04097a4879, type: 3}
      propertyPath: m_LocalScale.y
      value: 1
      objectReference: {fileID: 0}
    - target: {fileID: 487440, guid: 9fc563619a488e547b6dae04097a4879, type: 3}
      propertyPath: m_LocalScale.z
      value: 1
      objectReference: {fileID: 0}
    - target: {fileID: 487440, guid: 9fc563619a488e547b6dae04097a4879, type: 3}
      propertyPath: m_LocalPosition.x
      value: 0.7293968
      objectReference: {fileID: 0}
    - target: {fileID: 487440, guid: 9fc563619a488e547b6dae04097a4879, type: 3}
      propertyPath: m_LocalPosition.y
      value: 0.91462183
      objectReference: {fileID: 0}
    - target: {fileID: 487440, guid: 9fc563619a488e547b6dae04097a4879, type: 3}
      propertyPath: m_LocalPosition.z
      value: -0.60646415
      objectReference: {fileID: 0}
    - target: {fileID: 487440, guid: 9fc563619a488e547b6dae04097a4879, type: 3}
      propertyPath: m_LocalRotation.w
      value: 0
      objectReference: {fileID: 0}
    - target: {fileID: 487440, guid: 9fc563619a488e547b6dae04097a4879, type: 3}
      propertyPath: m_LocalRotation.x
      value: -0
      objectReference: {fileID: 0}
    - target: {fileID: 487440, guid: 9fc563619a488e547b6dae04097a4879, type: 3}
      propertyPath: m_LocalRotation.y
      value: 0.7071068
      objectReference: {fileID: 0}
    - target: {fileID: 487440, guid: 9fc563619a488e547b6dae04097a4879, type: 3}
      propertyPath: m_LocalRotation.z
      value: 0.7071068
      objectReference: {fileID: 0}
    - target: {fileID: 487440, guid: 9fc563619a488e547b6dae04097a4879, type: 3}
      propertyPath: m_LocalEulerAnglesHint.x
      value: -90.00001
      objectReference: {fileID: 0}
    - target: {fileID: 487440, guid: 9fc563619a488e547b6dae04097a4879, type: 3}
      propertyPath: m_LocalEulerAnglesHint.z
      value: 180
      objectReference: {fileID: 0}
    m_RemovedComponents: []
  m_SourcePrefab: {fileID: 100100000, guid: 9fc563619a488e547b6dae04097a4879, type: 3}
--- !u!1001 &301569248
PrefabInstance:
  m_ObjectHideFlags: 0
  serializedVersion: 2
  m_Modification:
    m_TransformParent: {fileID: 0}
    m_Modifications:
    - target: {fileID: 465628, guid: 1dbae9f558b649643974112dad15bec4, type: 3}
      propertyPath: m_RootOrder
      value: 4
      objectReference: {fileID: 0}
    - target: {fileID: 465628, guid: 1dbae9f558b649643974112dad15bec4, type: 3}
      propertyPath: m_LocalPosition.x
      value: -3.2101762
      objectReference: {fileID: 0}
    - target: {fileID: 465628, guid: 1dbae9f558b649643974112dad15bec4, type: 3}
      propertyPath: m_LocalPosition.y
      value: 0.039000064
      objectReference: {fileID: 0}
    - target: {fileID: 465628, guid: 1dbae9f558b649643974112dad15bec4, type: 3}
      propertyPath: m_LocalPosition.z
      value: -1.5657248
      objectReference: {fileID: 0}
    - target: {fileID: 465628, guid: 1dbae9f558b649643974112dad15bec4, type: 3}
      propertyPath: m_LocalRotation.w
      value: 0.41844693
      objectReference: {fileID: 0}
    - target: {fileID: 465628, guid: 1dbae9f558b649643974112dad15bec4, type: 3}
      propertyPath: m_LocalRotation.x
      value: 0.4184472
      objectReference: {fileID: 0}
    - target: {fileID: 465628, guid: 1dbae9f558b649643974112dad15bec4, type: 3}
      propertyPath: m_LocalRotation.y
      value: 0.57000166
      objectReference: {fileID: 0}
    - target: {fileID: 465628, guid: 1dbae9f558b649643974112dad15bec4, type: 3}
      propertyPath: m_LocalRotation.z
      value: -0.57000196
      objectReference: {fileID: 0}
    - target: {fileID: 465628, guid: 1dbae9f558b649643974112dad15bec4, type: 3}
      propertyPath: m_LocalEulerAnglesHint.x
      value: 90.00001
      objectReference: {fileID: 0}
    - target: {fileID: 465628, guid: 1dbae9f558b649643974112dad15bec4, type: 3}
      propertyPath: m_LocalEulerAnglesHint.z
      value: -107.434006
      objectReference: {fileID: 0}
    m_RemovedComponents: []
  m_SourcePrefab: {fileID: 100100000, guid: 1dbae9f558b649643974112dad15bec4, type: 3}
--- !u!1 &423400615
GameObject:
  m_ObjectHideFlags: 0
  m_CorrespondingSourceObject: {fileID: 0}
  m_PrefabInstance: {fileID: 0}
  m_PrefabAsset: {fileID: 0}
  serializedVersion: 6
  m_Component:
  - component: {fileID: 423400619}
  - component: {fileID: 423400618}
  - component: {fileID: 423400617}
  - component: {fileID: 423400616}
  m_Layer: 0
  m_Name: Plane
  m_TagString: Untagged
  m_Icon: {fileID: 0}
  m_NavMeshLayer: 0
  m_StaticEditorFlags: 0
  m_IsActive: 1
--- !u!23 &423400616
MeshRenderer:
  m_ObjectHideFlags: 0
  m_CorrespondingSourceObject: {fileID: 0}
  m_PrefabInstance: {fileID: 0}
  m_PrefabAsset: {fileID: 0}
  m_GameObject: {fileID: 423400615}
  m_Enabled: 1
  m_CastShadows: 1
  m_ReceiveShadows: 1
  m_DynamicOccludee: 1
  m_MotionVectors: 1
  m_LightProbeUsage: 1
  m_ReflectionProbeUsage: 1
  m_RayTracingMode: 2
  m_RayTraceProcedural: 0
  m_RenderingLayerMask: 1
  m_RendererPriority: 0
  m_Materials:
  - {fileID: 10302, guid: 0000000000000000f000000000000000, type: 0}
  m_StaticBatchInfo:
    firstSubMesh: 0
    subMeshCount: 0
  m_StaticBatchRoot: {fileID: 0}
  m_ProbeAnchor: {fileID: 0}
  m_LightProbeVolumeOverride: {fileID: 0}
  m_ScaleInLightmap: 1
  m_ReceiveGI: 1
  m_PreserveUVs: 1
  m_IgnoreNormalsForChartDetection: 0
  m_ImportantGI: 0
  m_StitchLightmapSeams: 1
  m_SelectedEditorRenderState: 3
  m_MinimumChartSize: 4
  m_AutoUVMaxDistance: 0.5
  m_AutoUVMaxAngle: 89
  m_LightmapParameters: {fileID: 0}
  m_SortingLayerID: 0
  m_SortingLayer: 0
  m_SortingOrder: 0
  m_AdditionalVertexStreams: {fileID: 0}
--- !u!64 &423400617
MeshCollider:
  m_ObjectHideFlags: 0
  m_CorrespondingSourceObject: {fileID: 0}
  m_PrefabInstance: {fileID: 0}
  m_PrefabAsset: {fileID: 0}
  m_GameObject: {fileID: 423400615}
  m_Material: {fileID: 0}
  m_IsTrigger: 0
  m_Enabled: 1
  serializedVersion: 4
  m_Convex: 0
  m_CookingOptions: 30
  m_Mesh: {fileID: 10209, guid: 0000000000000000e000000000000000, type: 0}
--- !u!33 &423400618
MeshFilter:
  m_ObjectHideFlags: 0
  m_CorrespondingSourceObject: {fileID: 0}
  m_PrefabInstance: {fileID: 0}
  m_PrefabAsset: {fileID: 0}
  m_GameObject: {fileID: 423400615}
  m_Mesh: {fileID: 10209, guid: 0000000000000000e000000000000000, type: 0}
--- !u!4 &423400619
Transform:
  m_ObjectHideFlags: 0
  m_CorrespondingSourceObject: {fileID: 0}
  m_PrefabInstance: {fileID: 0}
  m_PrefabAsset: {fileID: 0}
  m_GameObject: {fileID: 423400615}
  m_LocalRotation: {x: 0, y: 0, z: 0, w: 1}
  m_LocalPosition: {x: 0, y: 0, z: 0}
  m_LocalScale: {x: 10, y: 1, z: 10}
  m_Children: []
  m_Father: {fileID: 0}
  m_RootOrder: 11
  m_LocalEulerAnglesHint: {x: 0, y: 0, z: 0}
--- !u!1001 &526026099
PrefabInstance:
  m_ObjectHideFlags: 0
  serializedVersion: 2
  m_Modification:
    m_TransformParent: {fileID: 1987440007}
    m_Modifications:
    - target: {fileID: 475398, guid: 9b67bb7f07a190b41bb978e221c4a7e4, type: 3}
      propertyPath: m_RootOrder
      value: 3
      objectReference: {fileID: 0}
    - target: {fileID: 475398, guid: 9b67bb7f07a190b41bb978e221c4a7e4, type: 3}
      propertyPath: m_LocalScale.y
      value: 1
      objectReference: {fileID: 0}
    - target: {fileID: 475398, guid: 9b67bb7f07a190b41bb978e221c4a7e4, type: 3}
      propertyPath: m_LocalScale.z
      value: 1
      objectReference: {fileID: 0}
    - target: {fileID: 475398, guid: 9b67bb7f07a190b41bb978e221c4a7e4, type: 3}
      propertyPath: m_LocalPosition.x
      value: -0.23000002
      objectReference: {fileID: 0}
    - target: {fileID: 475398, guid: 9b67bb7f07a190b41bb978e221c4a7e4, type: 3}
      propertyPath: m_LocalPosition.y
      value: 0.059999973
      objectReference: {fileID: 0}
    - target: {fileID: 475398, guid: 9b67bb7f07a190b41bb978e221c4a7e4, type: 3}
      propertyPath: m_LocalPosition.z
      value: 0.42200005
      objectReference: {fileID: 0}
    - target: {fileID: 475398, guid: 9b67bb7f07a190b41bb978e221c4a7e4, type: 3}
      propertyPath: m_LocalRotation.w
      value: 1
      objectReference: {fileID: 0}
    - target: {fileID: 475398, guid: 9b67bb7f07a190b41bb978e221c4a7e4, type: 3}
      propertyPath: m_LocalRotation.x
      value: -0
      objectReference: {fileID: 0}
    - target: {fileID: 475398, guid: 9b67bb7f07a190b41bb978e221c4a7e4, type: 3}
      propertyPath: m_LocalRotation.y
      value: -0
      objectReference: {fileID: 0}
    - target: {fileID: 475398, guid: 9b67bb7f07a190b41bb978e221c4a7e4, type: 3}
      propertyPath: m_LocalRotation.z
      value: -0
      objectReference: {fileID: 0}
    m_RemovedComponents: []
  m_SourcePrefab: {fileID: 100100000, guid: 9b67bb7f07a190b41bb978e221c4a7e4, type: 3}
--- !u!1001 &658522175
PrefabInstance:
  m_ObjectHideFlags: 0
  serializedVersion: 2
  m_Modification:
    m_TransformParent: {fileID: 0}
    m_Modifications:
    - target: {fileID: 4765826449751054, guid: fda4c634f8a6e744984ee66d5c763c87, type: 3}
      propertyPath: m_RootOrder
      value: 1
      objectReference: {fileID: 0}
    - target: {fileID: 4765826449751054, guid: fda4c634f8a6e744984ee66d5c763c87, type: 3}
      propertyPath: m_LocalPosition.x
      value: -3.2057154
      objectReference: {fileID: 0}
    - target: {fileID: 4765826449751054, guid: fda4c634f8a6e744984ee66d5c763c87, type: 3}
      propertyPath: m_LocalPosition.y
      value: 0.195
      objectReference: {fileID: 0}
    - target: {fileID: 4765826449751054, guid: fda4c634f8a6e744984ee66d5c763c87, type: 3}
      propertyPath: m_LocalPosition.z
      value: -4.614
      objectReference: {fileID: 0}
    - target: {fileID: 4765826449751054, guid: fda4c634f8a6e744984ee66d5c763c87, type: 3}
      propertyPath: m_LocalRotation.w
      value: 0.7071068
      objectReference: {fileID: 0}
    - target: {fileID: 4765826449751054, guid: fda4c634f8a6e744984ee66d5c763c87, type: 3}
      propertyPath: m_LocalRotation.x
      value: -0.7071068
      objectReference: {fileID: 0}
    - target: {fileID: 4765826449751054, guid: fda4c634f8a6e744984ee66d5c763c87, type: 3}
      propertyPath: m_LocalRotation.y
      value: -0
      objectReference: {fileID: 0}
    - target: {fileID: 4765826449751054, guid: fda4c634f8a6e744984ee66d5c763c87, type: 3}
      propertyPath: m_LocalRotation.z
      value: -0
      objectReference: {fileID: 0}
    m_RemovedComponents: []
  m_SourcePrefab: {fileID: 100100000, guid: fda4c634f8a6e744984ee66d5c763c87, type: 3}
--- !u!1001 &854528026
PrefabInstance:
  m_ObjectHideFlags: 0
  serializedVersion: 2
  m_Modification:
    m_TransformParent: {fileID: 0}
    m_Modifications:
    - target: {fileID: 457118, guid: 97ad11e47dbea4c4baa376e584519266, type: 3}
      propertyPath: m_RootOrder
      value: 9
      objectReference: {fileID: 0}
    - target: {fileID: 457118, guid: 97ad11e47dbea4c4baa376e584519266, type: 3}
      propertyPath: m_LocalPosition.x
      value: -2.43
      objectReference: {fileID: 0}
    - target: {fileID: 457118, guid: 97ad11e47dbea4c4baa376e584519266, type: 3}
      propertyPath: m_LocalPosition.y
      value: 0.23
      objectReference: {fileID: 0}
    - target: {fileID: 457118, guid: 97ad11e47dbea4c4baa376e584519266, type: 3}
      propertyPath: m_LocalPosition.z
      value: 2.08
      objectReference: {fileID: 0}
    - target: {fileID: 457118, guid: 97ad11e47dbea4c4baa376e584519266, type: 3}
      propertyPath: m_LocalRotation.w
      value: -0.12874661
      objectReference: {fileID: 0}
    - target: {fileID: 457118, guid: 97ad11e47dbea4c4baa376e584519266, type: 3}
      propertyPath: m_LocalRotation.x
      value: -0
      objectReference: {fileID: 0}
    - target: {fileID: 457118, guid: 97ad11e47dbea4c4baa376e584519266, type: 3}
      propertyPath: m_LocalRotation.y
      value: -0.9916776
      objectReference: {fileID: 0}
    - target: {fileID: 457118, guid: 97ad11e47dbea4c4baa376e584519266, type: 3}
      propertyPath: m_LocalRotation.z
      value: -0
      objectReference: {fileID: 0}
    - target: {fileID: 457118, guid: 97ad11e47dbea4c4baa376e584519266, type: 3}
      propertyPath: m_LocalEulerAnglesHint.y
      value: -194.79399
      objectReference: {fileID: 0}
    m_RemovedComponents: []
  m_SourcePrefab: {fileID: 100100000, guid: 97ad11e47dbea4c4baa376e584519266, type: 3}
--- !u!1001 &1061719055
PrefabInstance:
  m_ObjectHideFlags: 0
  serializedVersion: 2
  m_Modification:
    m_TransformParent: {fileID: 0}
    m_Modifications:
    - target: {fileID: 4607781368981782, guid: b9a5bea6396bc974093a86261cb5a833, type: 3}
      propertyPath: m_RootOrder
      value: 3
      objectReference: {fileID: 0}
    - target: {fileID: 4607781368981782, guid: b9a5bea6396bc974093a86261cb5a833, type: 3}
      propertyPath: m_LocalPosition.x
      value: -0.604
      objectReference: {fileID: 0}
    - target: {fileID: 4607781368981782, guid: b9a5bea6396bc974093a86261cb5a833, type: 3}
      propertyPath: m_LocalPosition.y
      value: -0.001
      objectReference: {fileID: 0}
    - target: {fileID: 4607781368981782, guid: b9a5bea6396bc974093a86261cb5a833, type: 3}
      propertyPath: m_LocalPosition.z
      value: -3.3
      objectReference: {fileID: 0}
    - target: {fileID: 4607781368981782, guid: b9a5bea6396bc974093a86261cb5a833, type: 3}
      propertyPath: m_LocalRotation.w
      value: 0.6968523
      objectReference: {fileID: 0}
    - target: {fileID: 4607781368981782, guid: b9a5bea6396bc974093a86261cb5a833, type: 3}
      propertyPath: m_LocalRotation.x
      value: -0.6968523
      objectReference: {fileID: 0}
    - target: {fileID: 4607781368981782, guid: b9a5bea6396bc974093a86261cb5a833, type: 3}
      propertyPath: m_LocalRotation.y
      value: 0.119986914
      objectReference: {fileID: 0}
    - target: {fileID: 4607781368981782, guid: b9a5bea6396bc974093a86261cb5a833, type: 3}
      propertyPath: m_LocalRotation.z
      value: -0.119986914
      objectReference: {fileID: 0}
    - target: {fileID: 4607781368981782, guid: b9a5bea6396bc974093a86261cb5a833, type: 3}
      propertyPath: m_LocalEulerAnglesHint.x
      value: -70.461006
      objectReference: {fileID: 0}
    - target: {fileID: 4607781368981782, guid: b9a5bea6396bc974093a86261cb5a833, type: 3}
      propertyPath: m_LocalEulerAnglesHint.y
      value: 90.00001
      objectReference: {fileID: 0}
    - target: {fileID: 4607781368981782, guid: b9a5bea6396bc974093a86261cb5a833, type: 3}
      propertyPath: m_LocalEulerAnglesHint.z
      value: -90.00001
      objectReference: {fileID: 0}
    m_RemovedComponents: []
  m_SourcePrefab: {fileID: 100100000, guid: b9a5bea6396bc974093a86261cb5a833, type: 3}
--- !u!1 &1093982353
GameObject:
  m_ObjectHideFlags: 0
  m_CorrespondingSourceObject: {fileID: 0}
  m_PrefabInstance: {fileID: 0}
  m_PrefabAsset: {fileID: 0}
  serializedVersion: 6
  m_Component:
  - component: {fileID: 1093982355}
  - component: {fileID: 1093982354}
  m_Layer: 0
  m_Name: Directional Light
  m_TagString: Untagged
  m_Icon: {fileID: 0}
  m_NavMeshLayer: 0
  m_StaticEditorFlags: 0
  m_IsActive: 1
--- !u!108 &1093982354
Light:
  m_ObjectHideFlags: 0
  m_CorrespondingSourceObject: {fileID: 0}
  m_PrefabInstance: {fileID: 0}
  m_PrefabAsset: {fileID: 0}
  m_GameObject: {fileID: 1093982353}
  m_Enabled: 1
  serializedVersion: 10
  m_Type: 1
  m_Shape: 0
  m_Color: {r: 1, g: 0.93529415, b: 0.83823526, a: 1}
  m_Intensity: 0.6
  m_Range: 10
  m_SpotAngle: 30
  m_InnerSpotAngle: 21.80208
  m_CookieSize: 10
  m_Shadows:
    m_Type: 2
    m_Resolution: 3
    m_CustomResolution: -1
    m_Strength: 1
    m_Bias: 0.05
    m_NormalBias: 0.4
    m_NearPlane: 0.2
    m_CullingMatrixOverride:
      e00: 1
      e01: 0
      e02: 0
      e03: 0
      e10: 0
      e11: 1
      e12: 0
      e13: 0
      e20: 0
      e21: 0
      e22: 1
      e23: 0
      e30: 0
      e31: 0
      e32: 0
      e33: 1
    m_UseCullingMatrixOverride: 0
  m_Cookie: {fileID: 0}
  m_DrawHalo: 0
  m_Flare: {fileID: 0}
  m_RenderMode: 0
  m_CullingMask:
    serializedVersion: 2
    m_Bits: 4294967295
  m_RenderingLayerMask: 1
  m_Lightmapping: 4
  m_LightShadowCasterMode: 0
  m_AreaSize: {x: 1, y: 1}
  m_BounceIntensity: 1
  m_ColorTemperature: 6570
  m_UseColorTemperature: 0
  m_BoundingSphereOverride: {x: 0, y: 0, z: 0, w: 0}
  m_UseBoundingSphereOverride: 0
  m_UseViewFrustumForShadowCasterCull: 1
  m_ShadowRadius: 0
  m_ShadowAngle: 0
--- !u!4 &1093982355
Transform:
  m_ObjectHideFlags: 0
  m_CorrespondingSourceObject: {fileID: 0}
  m_PrefabInstance: {fileID: 0}
  m_PrefabAsset: {fileID: 0}
  m_GameObject: {fileID: 1093982353}
  m_LocalRotation: {x: 0.38855782, y: -0.41866022, z: 0.20464672, w: 0.7949002}
  m_LocalPosition: {x: 0, y: 3.46, z: 0}
  m_LocalScale: {x: 1, y: 1, z: 1}
  m_Children: []
  m_Father: {fileID: 0}
  m_RootOrder: 10
  m_LocalEulerAnglesHint: {x: 52.1, y: -55.55, z: 0}
--- !u!1001 &1229980401
PrefabInstance:
  m_ObjectHideFlags: 0
  serializedVersion: 2
  m_Modification:
    m_TransformParent: {fileID: 0}
    m_Modifications:
    - target: {fileID: 455816, guid: 92028abf4453dd444abfa92bedf0449c, type: 3}
      propertyPath: m_RootOrder
      value: 6
      objectReference: {fileID: 0}
    - target: {fileID: 455816, guid: 92028abf4453dd444abfa92bedf0449c, type: 3}
      propertyPath: m_LocalPosition.x
      value: -2.33
      objectReference: {fileID: 0}
    - target: {fileID: 455816, guid: 92028abf4453dd444abfa92bedf0449c, type: 3}
      propertyPath: m_LocalPosition.y
      value: 0.128
      objectReference: {fileID: 0}
    - target: {fileID: 455816, guid: 92028abf4453dd444abfa92bedf0449c, type: 3}
      propertyPath: m_LocalPosition.z
      value: -3.97
      objectReference: {fileID: 0}
    - target: {fileID: 455816, guid: 92028abf4453dd444abfa92bedf0449c, type: 3}
      propertyPath: m_LocalRotation.w
      value: 0.9424549
      objectReference: {fileID: 0}
    - target: {fileID: 455816, guid: 92028abf4453dd444abfa92bedf0449c, type: 3}
      propertyPath: m_LocalRotation.x
      value: -0.051376816
      objectReference: {fileID: 0}
    - target: {fileID: 455816, guid: 92028abf4453dd444abfa92bedf0449c, type: 3}
      propertyPath: m_LocalRotation.y
      value: 0.2827553
      objectReference: {fileID: 0}
    - target: {fileID: 455816, guid: 92028abf4453dd444abfa92bedf0449c, type: 3}
      propertyPath: m_LocalRotation.z
      value: -0.17084683
      objectReference: {fileID: 0}
    - target: {fileID: 455816, guid: 92028abf4453dd444abfa92bedf0449c, type: 3}
      propertyPath: m_LocalEulerAnglesHint.x
      value: -0.013
      objectReference: {fileID: 0}
    - target: {fileID: 455816, guid: 92028abf4453dd444abfa92bedf0449c, type: 3}
      propertyPath: m_LocalEulerAnglesHint.y
      value: 33.403
      objectReference: {fileID: 0}
    - target: {fileID: 455816, guid: 92028abf4453dd444abfa92bedf0449c, type: 3}
      propertyPath: m_LocalEulerAnglesHint.z
      value: -20.554
      objectReference: {fileID: 0}
    m_RemovedComponents: []
  m_SourcePrefab: {fileID: 100100000, guid: 92028abf4453dd444abfa92bedf0449c, type: 3}
--- !u!1001 &1255877483
PrefabInstance:
  m_ObjectHideFlags: 0
  serializedVersion: 2
  m_Modification:
    m_TransformParent: {fileID: 0}
    m_Modifications:
    - target: {fileID: 456634, guid: f232b9f36d6f11d4b965d8b39a5776bb, type: 3}
      propertyPath: m_RootOrder
      value: 8
      objectReference: {fileID: 0}
    - target: {fileID: 456634, guid: f232b9f36d6f11d4b965d8b39a5776bb, type: 3}
      propertyPath: m_LocalPosition.x
      value: -2.97
      objectReference: {fileID: 0}
    - target: {fileID: 456634, guid: f232b9f36d6f11d4b965d8b39a5776bb, type: 3}
      propertyPath: m_LocalPosition.y
      value: 0.3
      objectReference: {fileID: 0}
    - target: {fileID: 456634, guid: f232b9f36d6f11d4b965d8b39a5776bb, type: 3}
      propertyPath: m_LocalPosition.z
      value: -3.48
      objectReference: {fileID: 0}
    - target: {fileID: 456634, guid: f232b9f36d6f11d4b965d8b39a5776bb, type: 3}
      propertyPath: m_LocalRotation.w
      value: 0.7071068
      objectReference: {fileID: 0}
    - target: {fileID: 456634, guid: f232b9f36d6f11d4b965d8b39a5776bb, type: 3}
      propertyPath: m_LocalRotation.x
      value: -0.7071068
      objectReference: {fileID: 0}
    - target: {fileID: 456634, guid: f232b9f36d6f11d4b965d8b39a5776bb, type: 3}
      propertyPath: m_LocalRotation.y
      value: 0
      objectReference: {fileID: 0}
    - target: {fileID: 456634, guid: f232b9f36d6f11d4b965d8b39a5776bb, type: 3}
      propertyPath: m_LocalRotation.z
      value: -0
      objectReference: {fileID: 0}
    m_RemovedComponents: []
  m_SourcePrefab: {fileID: 100100000, guid: f232b9f36d6f11d4b965d8b39a5776bb, type: 3}
--- !u!1001 &1978105885
PrefabInstance:
  m_ObjectHideFlags: 0
  serializedVersion: 2
  m_Modification:
    m_TransformParent: {fileID: 0}
    m_Modifications:
    - target: {fileID: 418282, guid: d84d9b0d136674146a415ceadd3399f7, type: 3}
      propertyPath: m_RootOrder
      value: 12
      objectReference: {fileID: 0}
    - target: {fileID: 418282, guid: d84d9b0d136674146a415ceadd3399f7, type: 3}
      propertyPath: m_LocalScale.y
      value: 1
      objectReference: {fileID: 0}
    - target: {fileID: 418282, guid: d84d9b0d136674146a415ceadd3399f7, type: 3}
      propertyPath: m_LocalScale.z
      value: 1
      objectReference: {fileID: 0}
    - target: {fileID: 418282, guid: d84d9b0d136674146a415ceadd3399f7, type: 3}
      propertyPath: m_LocalPosition.x
      value: 0.7743988
      objectReference: {fileID: 0}
    - target: {fileID: 418282, guid: d84d9b0d136674146a415ceadd3399f7, type: 3}
      propertyPath: m_LocalPosition.y
      value: -0.15937805
      objectReference: {fileID: 0}
    - target: {fileID: 418282, guid: d84d9b0d136674146a415ceadd3399f7, type: 3}
      propertyPath: m_LocalPosition.z
      value: -4.060464
      objectReference: {fileID: 0}
    - target: {fileID: 418282, guid: d84d9b0d136674146a415ceadd3399f7, type: 3}
      propertyPath: m_LocalRotation.w
      value: 0
      objectReference: {fileID: 0}
    - target: {fileID: 418282, guid: d84d9b0d136674146a415ceadd3399f7, type: 3}
      propertyPath: m_LocalRotation.x
      value: 0
      objectReference: {fileID: 0}
    - target: {fileID: 418282, guid: d84d9b0d136674146a415ceadd3399f7, type: 3}
      propertyPath: m_LocalRotation.y
      value: 0.7071068
      objectReference: {fileID: 0}
    - target: {fileID: 418282, guid: d84d9b0d136674146a415ceadd3399f7, type: 3}
      propertyPath: m_LocalRotation.z
      value: 0.7071068
      objectReference: {fileID: 0}
    - target: {fileID: 418282, guid: d84d9b0d136674146a415ceadd3399f7, type: 3}
      propertyPath: m_LocalEulerAnglesHint.x
      value: -90.00001
      objectReference: {fileID: 0}
    - target: {fileID: 418282, guid: d84d9b0d136674146a415ceadd3399f7, type: 3}
      propertyPath: m_LocalEulerAnglesHint.z
      value: 180
      objectReference: {fileID: 0}
    - target: {fileID: 472678, guid: d84d9b0d136674146a415ceadd3399f7, type: 3}
      propertyPath: m_LocalRotation.w
      value: 0.6421979
      objectReference: {fileID: 0}
    - target: {fileID: 472678, guid: d84d9b0d136674146a415ceadd3399f7, type: 3}
      propertyPath: m_LocalRotation.z
      value: 0.7665389
      objectReference: {fileID: 0}
    - target: {fileID: 472678, guid: d84d9b0d136674146a415ceadd3399f7, type: 3}
      propertyPath: m_LocalEulerAnglesHint.z
      value: 100.088005
      objectReference: {fileID: 0}
    m_RemovedComponents: []
  m_SourcePrefab: {fileID: 100100000, guid: d84d9b0d136674146a415ceadd3399f7, type: 3}
--- !u!1001 &1984321181
PrefabInstance:
  m_ObjectHideFlags: 0
  serializedVersion: 2
  m_Modification:
    m_TransformParent: {fileID: 0}
    m_Modifications:
    - target: {fileID: 4009275339056470, guid: 5c6a8e5e71104fb48a940b834b29dfb6, type: 3}
      propertyPath: m_RootOrder
      value: 2
      objectReference: {fileID: 0}
    - target: {fileID: 4009275339056470, guid: 5c6a8e5e71104fb48a940b834b29dfb6, type: 3}
      propertyPath: m_LocalPosition.x
      value: -2.748
      objectReference: {fileID: 0}
    - target: {fileID: 4009275339056470, guid: 5c6a8e5e71104fb48a940b834b29dfb6, type: 3}
      propertyPath: m_LocalPosition.y
      value: -0
      objectReference: {fileID: 0}
    - target: {fileID: 4009275339056470, guid: 5c6a8e5e71104fb48a940b834b29dfb6, type: 3}
      propertyPath: m_LocalPosition.z
      value: -4.674
      objectReference: {fileID: 0}
    - target: {fileID: 4009275339056470, guid: 5c6a8e5e71104fb48a940b834b29dfb6, type: 3}
      propertyPath: m_LocalRotation.w
      value: 0.67706823
      objectReference: {fileID: 0}
    - target: {fileID: 4009275339056470, guid: 5c6a8e5e71104fb48a940b834b29dfb6, type: 3}
      propertyPath: m_LocalRotation.x
      value: -0.67706823
      objectReference: {fileID: 0}
    - target: {fileID: 4009275339056470, guid: 5c6a8e5e71104fb48a940b834b29dfb6, type: 3}
      propertyPath: m_LocalRotation.y
      value: 0.20390844
      objectReference: {fileID: 0}
    - target: {fileID: 4009275339056470, guid: 5c6a8e5e71104fb48a940b834b29dfb6, type: 3}
      propertyPath: m_LocalRotation.z
      value: 0.20390838
      objectReference: {fileID: 0}
    - target: {fileID: 4009275339056470, guid: 5c6a8e5e71104fb48a940b834b29dfb6, type: 3}
      propertyPath: m_LocalEulerAnglesHint.x
      value: -90.00001
      objectReference: {fileID: 0}
    - target: {fileID: 4009275339056470, guid: 5c6a8e5e71104fb48a940b834b29dfb6, type: 3}
      propertyPath: m_LocalEulerAnglesHint.z
      value: 33.521
      objectReference: {fileID: 0}
    m_RemovedComponents: []
  m_SourcePrefab: {fileID: 100100000, guid: 5c6a8e5e71104fb48a940b834b29dfb6, type: 3}
--- !u!4 &1987440007 stripped
Transform:
  m_CorrespondingSourceObject: {fileID: 456634, guid: f232b9f36d6f11d4b965d8b39a5776bb, type: 3}
  m_PrefabInstance: {fileID: 1255877483}
  m_PrefabAsset: {fileID: 0}
